%YAML 1.1
%TAG !u! tag:unity3d.com,2011:
--- !u!64 &2844679101506443193
MeshCollider:
  m_ObjectHideFlags: 0
  m_CorrespondingSourceObject: {fileID: 0}
  m_PrefabInstance: {fileID: 0}
  m_PrefabAsset: {fileID: 0}
  m_GameObject: {fileID: 118639369804270340}
  m_Material: {fileID: 0}
  m_IsTrigger: 0
  m_Enabled: 1
  serializedVersion: 3
  m_Convex: 0
  m_CookingOptions: 14
  m_Mesh: {fileID: -8960794275054517049, guid: 6d102e612246a924f945d2903447d271, type: 3}
--- !u!1001 &8251879806631678477
PrefabInstance:
  m_ObjectHideFlags: 0
  serializedVersion: 2
  m_Modification:
    m_TransformParent: {fileID: 0}
    m_Modifications:
    - target: {fileID: -927199367670048503, guid: 6d102e612246a924f945d2903447d271,
        type: 3}
      propertyPath: m_Name
      value: Gate_BonePillarA_WithVines
      objectReference: {fileID: 0}
    - target: {fileID: -927199367670048503, guid: 6d102e612246a924f945d2903447d271,
        type: 3}
      propertyPath: m_StaticEditorFlags
      value: 4294967295
      objectReference: {fileID: 0}
    - target: {fileID: -4216859302048453862, guid: 6d102e612246a924f945d2903447d271,
        type: 3}
      propertyPath: m_LocalPosition.x
      value: 0
      objectReference: {fileID: 0}
    - target: {fileID: -4216859302048453862, guid: 6d102e612246a924f945d2903447d271,
        type: 3}
      propertyPath: m_LocalPosition.y
      value: 0
      objectReference: {fileID: 0}
    - target: {fileID: -4216859302048453862, guid: 6d102e612246a924f945d2903447d271,
        type: 3}
      propertyPath: m_LocalPosition.z
      value: 0
      objectReference: {fileID: 0}
    - target: {fileID: -4216859302048453862, guid: 6d102e612246a924f945d2903447d271,
        type: 3}
      propertyPath: m_LocalRotation.x
      value: -0.0000020191071
      objectReference: {fileID: 0}
    - target: {fileID: -4216859302048453862, guid: 6d102e612246a924f945d2903447d271,
        type: 3}
      propertyPath: m_LocalRotation.y
      value: -0.7071068
      objectReference: {fileID: 0}
    - target: {fileID: -4216859302048453862, guid: 6d102e612246a924f945d2903447d271,
        type: 3}
      propertyPath: m_LocalRotation.z
      value: -0.7071068
      objectReference: {fileID: 0}
    - target: {fileID: -4216859302048453862, guid: 6d102e612246a924f945d2903447d271,
        type: 3}
      propertyPath: m_LocalRotation.w
      value: 0.0000020191071
      objectReference: {fileID: 0}
    - target: {fileID: -4216859302048453862, guid: 6d102e612246a924f945d2903447d271,
        type: 3}
      propertyPath: m_RootOrder
      value: 0
      objectReference: {fileID: 0}
    - target: {fileID: -4216859302048453862, guid: 6d102e612246a924f945d2903447d271,
        type: 3}
      propertyPath: m_LocalEulerAnglesHint.x
      value: -90.00001
      objectReference: {fileID: 0}
    - target: {fileID: -4216859302048453862, guid: 6d102e612246a924f945d2903447d271,
        type: 3}
      propertyPath: m_LocalEulerAnglesHint.y
      value: 0
      objectReference: {fileID: 0}
    - target: {fileID: -4216859302048453862, guid: 6d102e612246a924f945d2903447d271,
        type: 3}
      propertyPath: m_LocalEulerAnglesHint.z
      value: -180.00002
      objectReference: {fileID: 0}
    - target: {fileID: -1504981713932161579, guid: 6d102e612246a924f945d2903447d271,
        type: 3}
      propertyPath: m_Materials.Array.data[0]
      value: 
      objectReference: {fileID: 2100000, guid: e8a8d36f50b6e9d4b88589f723beebaf, type: 2}
    m_RemovedComponents: []
  m_SourcePrefab: {fileID: 100100000, guid: 6d102e612246a924f945d2903447d271, type: 3}
--- !u!1 &118639369804270340 stripped
GameObject:
  m_CorrespondingSourceObject: {fileID: -927199367670048503, guid: 6d102e612246a924f945d2903447d271,
    type: 3}
  m_PrefabInstance: {fileID: 8251879806631678477}
  m_PrefabAsset: {fileID: 0}
