%YAML 1.1
%TAG !u! tag:unity3d.com,2011:
--- !u!1001 &1330218776848055730
PrefabInstance:
  m_ObjectHideFlags: 0
  serializedVersion: 2
  m_Modification:
    m_TransformParent: {fileID: 0}
    m_Modifications:
    - target: {fileID: -927199367670048503, guid: 4a273b9481870dd4d9492dcd2afa3513,
        type: 3}
      propertyPath: m_Name
      value: TreeFern_A
      objectReference: {fileID: 0}
    - target: {fileID: -4216859302048453862, guid: 4a273b9481870dd4d9492dcd2afa3513,
        type: 3}
      propertyPath: m_LocalPosition.x
      value: -371.87933
      objectReference: {fileID: 0}
    - target: {fileID: -4216859302048453862, guid: 4a273b9481870dd4d9492dcd2afa3513,
        type: 3}
      propertyPath: m_LocalPosition.y
      value: -0.00041890438
      objectReference: {fileID: 0}
    - target: {fileID: -4216859302048453862, guid: 4a273b9481870dd4d9492dcd2afa3513,
        type: 3}
      propertyPath: m_LocalPosition.z
      value: -245.29326
      objectReference: {fileID: 0}
    - target: {fileID: -4216859302048453862, guid: 4a273b9481870dd4d9492dcd2afa3513,
        type: 3}
      propertyPath: m_LocalRotation.x
      value: 0
      objectReference: {fileID: 0}
    - target: {fileID: -4216859302048453862, guid: 4a273b9481870dd4d9492dcd2afa3513,
        type: 3}
      propertyPath: m_LocalRotation.y
      value: 0
      objectReference: {fileID: 0}
    - target: {fileID: -4216859302048453862, guid: 4a273b9481870dd4d9492dcd2afa3513,
        type: 3}
      propertyPath: m_LocalRotation.z
      value: 0
      objectReference: {fileID: 0}
    - target: {fileID: -4216859302048453862, guid: 4a273b9481870dd4d9492dcd2afa3513,
        type: 3}
      propertyPath: m_LocalRotation.w
      value: 1
      objectReference: {fileID: 0}
    - target: {fileID: -4216859302048453862, guid: 4a273b9481870dd4d9492dcd2afa3513,
        type: 3}
      propertyPath: m_RootOrder
      value: 0
      objectReference: {fileID: 0}
    - target: {fileID: -4216859302048453862, guid: 4a273b9481870dd4d9492dcd2afa3513,
        type: 3}
      propertyPath: m_LocalEulerAnglesHint.x
      value: 0
      objectReference: {fileID: 0}
    - target: {fileID: -4216859302048453862, guid: 4a273b9481870dd4d9492dcd2afa3513,
        type: 3}
      propertyPath: m_LocalEulerAnglesHint.y
      value: 0
      objectReference: {fileID: 0}
    - target: {fileID: -4216859302048453862, guid: 4a273b9481870dd4d9492dcd2afa3513,
        type: 3}
      propertyPath: m_LocalEulerAnglesHint.z
      value: 0
      objectReference: {fileID: 0}
    m_RemovedComponents: []
  m_SourcePrefab: {fileID: 100100000, guid: 4a273b9481870dd4d9492dcd2afa3513, type: 3}
