%YAML 1.1
%TAG !u! tag:unity3d.com,2011:
--- !u!1001 &7598670251668782164
PrefabInstance:
  m_ObjectHideFlags: 0
  serializedVersion: 2
  m_Modification:
    m_TransformParent: {fileID: 0}
    m_Modifications:
    - target: {fileID: -927199367670048503, guid: c4d463fd5ee93b24f9cc54b1b5092b8c,
        type: 3}
      propertyPath: m_Name
      value: Tree_Fern_Leaves
      objectReference: {fileID: 0}
    - target: {fileID: -4216859302048453862, guid: c4d463fd5ee93b24f9cc54b1b5092b8c,
        type: 3}
      propertyPath: m_LocalPosition.x
      value: -386.10132
      objectReference: {fileID: 0}
    - target: {fileID: -4216859302048453862, guid: c4d463fd5ee93b24f9cc54b1b5092b8c,
        type: 3}
      propertyPath: m_LocalPosition.y
      value: -8.2
      objectReference: {fileID: 0}
    - target: {fileID: -4216859302048453862, guid: c4d463fd5ee93b24f9cc54b1b5092b8c,
        type: 3}
      propertyPath: m_LocalPosition.z
      value: -240.26718
      objectReference: {fileID: 0}
    - target: {fileID: -4216859302048453862, guid: c4d463fd5ee93b24f9cc54b1b5092b8c,
        type: 3}
      propertyPath: m_LocalRotation.x
      value: 0
      objectReference: {fileID: 0}
    - target: {fileID: -4216859302048453862, guid: c4d463fd5ee93b24f9cc54b1b5092b8c,
        type: 3}
      propertyPath: m_LocalRotation.y
      value: 0
      objectReference: {fileID: 0}
    - target: {fileID: -4216859302048453862, guid: c4d463fd5ee93b24f9cc54b1b5092b8c,
        type: 3}
      propertyPath: m_LocalRotation.z
      value: 0
      objectReference: {fileID: 0}
    - target: {fileID: -4216859302048453862, guid: c4d463fd5ee93b24f9cc54b1b5092b8c,
        type: 3}
      propertyPath: m_LocalRotation.w
      value: 1
      objectReference: {fileID: 0}
    - target: {fileID: -4216859302048453862, guid: c4d463fd5ee93b24f9cc54b1b5092b8c,
        type: 3}
      propertyPath: m_RootOrder
      value: 0
      objectReference: {fileID: 0}
    - target: {fileID: -4216859302048453862, guid: c4d463fd5ee93b24f9cc54b1b5092b8c,
        type: 3}
      propertyPath: m_LocalEulerAnglesHint.x
      value: 0
      objectReference: {fileID: 0}
    - target: {fileID: -4216859302048453862, guid: c4d463fd5ee93b24f9cc54b1b5092b8c,
        type: 3}
      propertyPath: m_LocalEulerAnglesHint.y
      value: 0
      objectReference: {fileID: 0}
    - target: {fileID: -4216859302048453862, guid: c4d463fd5ee93b24f9cc54b1b5092b8c,
        type: 3}
      propertyPath: m_LocalEulerAnglesHint.z
      value: 0
      objectReference: {fileID: 0}
    m_RemovedComponents: []
  m_SourcePrefab: {fileID: 100100000, guid: c4d463fd5ee93b24f9cc54b1b5092b8c, type: 3}
