%YAML 1.1
%TAG !u! tag:unity3d.com,2011:
--- !u!21 &2100000
Material:
  serializedVersion: 6
  m_ObjectHideFlags: 0
  m_CorrespondingSourceObject: {fileID: 0}
  m_PrefabInstance: {fileID: 0}
  m_PrefabAsset: {fileID: 0}
  m_Name: Conifer
  m_Shader: {fileID: 4800000, guid: 99134b1f0c27d54469a840832a28fadf, type: 3}
  m_ShaderKeywords: EFFECT_BUMP EFFECT_EXTRA_TEX EFFECT_HUE_VARIATION EFFECT_SUBSURFACE
    _WINDQUALITY_BEST
  m_LightmapFlags: 4
  m_EnableInstancingVariants: 1
  m_DoubleSidedGI: 1
  m_CustomRenderQueue: -1
  stringTagMap: {}
  disabledShaderPasses: []
  m_SavedProperties:
    serializedVersion: 3
    m_TexEnvs:
    - _BumpMap:
        m_Texture: {fileID: 2800000, guid: e95c06544c2855f4cafcc52776f6c1cc, type: 3}
        m_Scale: {x: 1, y: 1}
        m_Offset: {x: 0, y: 0}
    - _ExtraTex:
        m_Texture: {fileID: 2800000, guid: 948ad4f04bfe231478d65163d9f3b6de, type: 3}
        m_Scale: {x: 1, y: 1}
        m_Offset: {x: 0, y: 0}
    - _MainTex:
        m_Texture: {fileID: 2800000, guid: f617d6920c5fed64ba8868e23f009c17, type: 3}
        m_Scale: {x: 1, y: 1}
        m_Offset: {x: 0, y: 0}
    - _SubsurfaceTex:
        m_Texture: {fileID: 2800000, guid: 68356f3efc45e4749a199f467243555a, type: 3}
        m_Scale: {x: 1, y: 1}
        m_Offset: {x: 0, y: 0}
    m_Floats:
    - _BillboardKwToggle: 0
    - _BillboardShadowFade: 0.5
    - _Glossiness: 0.5
    - _HueVariationKwToggle: 1
    - _Metallic: 0
    - _NormalMapKwToggle: 1
    - _SubsurfaceIndirect: 0.25
    - _SubsurfaceKwToggle: 1
    - _TwoSided: 0
    - _WindQuality: 4
    m_Colors:
    - _Color: {r: 1, g: 1, b: 1, a: 1}
    - _HueVariationColor: {r: 1, g: 0.5, b: 0, a: 0.1}
    - _SubsurfaceColor: {r: 1, g: 1, b: 1, a: 1}
